
(module SOIC127P599X175-8N (layer F.Cu) (tedit 653E79DC)
  (descr "")
  (attr smd)
  (fp_text reference REF** (at -0.385 -3.537 0) (layer F.SilkS)
    (effects (font (size 1.0 1.0) (thickness 0.15)))
  )
  (fp_text value SOIC127P599X175-8N (at 7.87 3.537 0) (layer F.Fab)
    (effects (font (size 1.0 1.0) (thickness 0.15)))
  )
  (pad 1 smd roundrect (roundrect_rratio 0.07) (at -2.47 -1.905) (size 1.97 0.6) (layers F.Cu F.Mask F.Paste) (solder_mask_margin 0.102))
  (pad 2 smd roundrect (roundrect_rratio 0.07) (at -2.47 -0.635) (size 1.97 0.6) (layers F.Cu F.Mask F.Paste) (solder_mask_margin 0.102))
  (pad 3 smd roundrect (roundrect_rratio 0.07) (at -2.47 0.635) (size 1.97 0.6) (layers F.Cu F.Mask F.Paste) (solder_mask_margin 0.102))
  (pad 4 smd roundrect (roundrect_rratio 0.07) (at -2.47 1.905) (size 1.97 0.6) (layers F.Cu F.Mask F.Paste) (solder_mask_margin 0.102))
  (pad 5 smd roundrect (roundrect_rratio 0.07) (at 2.47 1.905) (size 1.97 0.6) (layers F.Cu F.Mask F.Paste) (solder_mask_margin 0.102))
  (pad 6 smd roundrect (roundrect_rratio 0.07) (at 2.47 0.635) (size 1.97 0.6) (layers F.Cu F.Mask F.Paste) (solder_mask_margin 0.102))
  (pad 7 smd roundrect (roundrect_rratio 0.07) (at 2.47 -0.635) (size 1.97 0.6) (layers F.Cu F.Mask F.Paste) (solder_mask_margin 0.102))
  (pad 8 smd roundrect (roundrect_rratio 0.07) (at 2.47 -1.905) (size 1.97 0.6) (layers F.Cu F.Mask F.Paste) (solder_mask_margin 0.102))
  (fp_circle (center -4.04 -2.305) (end -3.94 -2.305) (layer F.SilkS) (width 0.2))
  (fp_circle (center -4.04 -2.305) (end -3.94 -2.305) (layer F.Fab) (width 0.2))
  (fp_line (start -1.95 -2.4525) (end 1.95 -2.4525) (layer F.Fab) (width 0.127))
  (fp_line (start -1.95 2.4525) (end 1.95 2.4525) (layer F.Fab) (width 0.127))
  (fp_line (start -1.95 -2.525) (end 1.95 -2.525) (layer F.SilkS) (width 0.127))
  (fp_line (start -1.95 2.525) (end 1.95 2.525) (layer F.SilkS) (width 0.127))
  (fp_line (start -1.95 -2.4525) (end -1.95 2.4525) (layer F.Fab) (width 0.127))
  (fp_line (start 1.95 -2.4525) (end 1.95 2.4525) (layer F.Fab) (width 0.127))
  (fp_line (start -3.705 -2.7025) (end 3.705 -2.7025) (layer F.CrtYd) (width 0.05))
  (fp_line (start -3.705 2.7025) (end 3.705 2.7025) (layer F.CrtYd) (width 0.05))
  (fp_line (start -3.705 -2.7025) (end -3.705 2.7025) (layer F.CrtYd) (width 0.05))
  (fp_line (start 3.705 -2.7025) (end 3.705 2.7025) (layer F.CrtYd) (width 0.05))
)