M48
; DRILL file {KiCad 7.0.9} date Tue Dec 19 14:30:15 2023
; FORMAT={-:-/ absolute / inch / decimal}
; #@! TF.CreationDate,2023-12-19T14:30:15+01:00
; #@! TF.GenerationSoftware,Kicad,Pcbnew,7.0.9
; #@! TF.FileFunction,Plated,2,4,Blind
FMAT,2
INCH
; #@! TA.AperFunction,Plated,Buried,ViaDrill
T1C0.0157
%
G90
G05
T1
X4.7028Y-4.5282
X4.7028Y-4.5762
X4.7038Y-4.4792
X4.7118Y-4.4272
X4.7288Y-4.3752
X4.7538Y-4.3292
X4.7908Y-4.5022
X4.7908Y-4.5502
X4.7958Y-4.4512
X4.8108Y-4.4042
X4.8378Y-4.3612
X4.8628Y-4.5762
X4.8718Y-4.3272
X4.9158Y-4.5772
T0
M30
