G04 #@! TF.GenerationSoftware,KiCad,Pcbnew,7.0.9*
G04 #@! TF.CreationDate,2024-01-24T10:48:13+01:00*
G04 #@! TF.ProjectId,carte_fille,63617274-655f-4666-996c-6c652e6b6963,1.1*
G04 #@! TF.SameCoordinates,Original*
G04 #@! TF.FileFunction,Paste,Top*
G04 #@! TF.FilePolarity,Positive*
%FSLAX46Y46*%
G04 Gerber Fmt 4.6, Leading zero omitted, Abs format (unit mm)*
G04 Created by KiCad (PCBNEW 7.0.9) date 2024-01-24 10:48:13*
%MOMM*%
%LPD*%
G01*
G04 APERTURE LIST*
G04 Aperture macros list*
%AMRoundRect*
0 Rectangle with rounded corners*
0 $1 Rounding radius*
0 $2 $3 $4 $5 $6 $7 $8 $9 X,Y pos of 4 corners*
0 Add a 4 corners polygon primitive as box body*
4,1,4,$2,$3,$4,$5,$6,$7,$8,$9,$2,$3,0*
0 Add four circle primitives for the rounded corners*
1,1,$1+$1,$2,$3*
1,1,$1+$1,$4,$5*
1,1,$1+$1,$6,$7*
1,1,$1+$1,$8,$9*
0 Add four rect primitives between the rounded corners*
20,1,$1+$1,$2,$3,$4,$5,0*
20,1,$1+$1,$4,$5,$6,$7,0*
20,1,$1+$1,$6,$7,$8,$9,0*
20,1,$1+$1,$8,$9,$2,$3,0*%
G04 Aperture macros list end*
%ADD10RoundRect,0.250000X-0.412500X-1.100000X0.412500X-1.100000X0.412500X1.100000X-0.412500X1.100000X0*%
%ADD11R,1.475000X0.450000*%
%ADD12RoundRect,0.250000X-0.689429X-0.229810X-0.229810X-0.689429X0.689429X0.229810X0.229810X0.689429X0*%
%ADD13RoundRect,0.250000X0.650000X-0.325000X0.650000X0.325000X-0.650000X0.325000X-0.650000X-0.325000X0*%
%ADD14RoundRect,0.250000X-0.625000X0.312500X-0.625000X-0.312500X0.625000X-0.312500X0.625000X0.312500X0*%
%ADD15RoundRect,0.250000X0.312500X0.625000X-0.312500X0.625000X-0.312500X-0.625000X0.312500X-0.625000X0*%
%ADD16RoundRect,0.250000X0.625000X-0.312500X0.625000X0.312500X-0.625000X0.312500X-0.625000X-0.312500X0*%
%ADD17RoundRect,0.250000X-0.312500X-0.625000X0.312500X-0.625000X0.312500X0.625000X-0.312500X0.625000X0*%
%ADD18R,0.410000X1.600000*%
%ADD19RoundRect,0.150000X-0.825000X-0.150000X0.825000X-0.150000X0.825000X0.150000X-0.825000X0.150000X0*%
%ADD20RoundRect,0.250000X-0.400000X-0.750000X0.400000X-0.750000X0.400000X0.750000X-0.400000X0.750000X0*%
%ADD21RoundRect,0.250000X-0.750000X-0.750000X0.750000X-0.750000X0.750000X0.750000X-0.750000X0.750000X0*%
%ADD22RoundRect,0.150000X0.512500X0.150000X-0.512500X0.150000X-0.512500X-0.150000X0.512500X-0.150000X0*%
%ADD23R,0.950000X0.300000*%
%ADD24R,0.300000X0.950000*%
%ADD25R,3.550000X3.550000*%
%ADD26RoundRect,0.250000X-0.325000X-0.650000X0.325000X-0.650000X0.325000X0.650000X-0.325000X0.650000X0*%
G04 APERTURE END LIST*
D10*
X117257500Y-177042800D03*
X120382500Y-177042800D03*
X117260500Y-173105800D03*
X120385500Y-173105800D03*
X134158600Y-177042800D03*
X137283600Y-177042800D03*
X134158600Y-173105800D03*
X137283600Y-173105800D03*
D11*
X114033400Y-105425800D03*
X114033400Y-106075800D03*
X114033400Y-106725800D03*
X114033400Y-107375800D03*
X114033400Y-108025800D03*
X114033400Y-108675800D03*
X114033400Y-109325800D03*
X114033400Y-109975800D03*
X108157400Y-109975800D03*
X108157400Y-109325800D03*
X108157400Y-108675800D03*
X108157400Y-108025800D03*
X108157400Y-107375800D03*
X108157400Y-106725800D03*
X108157400Y-106075800D03*
X108157400Y-105425800D03*
D12*
X89350766Y-131980966D03*
X91436732Y-134066932D03*
X87979817Y-152327017D03*
X90065783Y-154412983D03*
D13*
X89250749Y-128504549D03*
X89250749Y-125554549D03*
X90115000Y-150447800D03*
X90115000Y-147497800D03*
D14*
X99208200Y-138318500D03*
X99208200Y-141243500D03*
D15*
X109182700Y-131221200D03*
X106257700Y-131221200D03*
X109236500Y-127792200D03*
X106311500Y-127792200D03*
X109202100Y-154309800D03*
X106277100Y-154309800D03*
X109202100Y-151896800D03*
X106277100Y-151896800D03*
D14*
X111781200Y-134632500D03*
X111781200Y-137557500D03*
X109139600Y-157930300D03*
X109139600Y-160855300D03*
X120010800Y-134638500D03*
X120010800Y-137563500D03*
X120010800Y-157924300D03*
X120010800Y-160849300D03*
D16*
X124506600Y-137563500D03*
X124506600Y-134638500D03*
X125014600Y-160849300D03*
X125014600Y-157924300D03*
D15*
X112027500Y-124591800D03*
X109102500Y-124591800D03*
D14*
X128875400Y-131838500D03*
X128875400Y-134763500D03*
D15*
X111999100Y-147832800D03*
X109074100Y-147832800D03*
D14*
X125014600Y-152514100D03*
X125014600Y-155439100D03*
D17*
X114563500Y-124591800D03*
X117488500Y-124591800D03*
X114538100Y-147832800D03*
X117463100Y-147832800D03*
D18*
X93213800Y-152354000D03*
X93848800Y-152354000D03*
X94483800Y-152354000D03*
X95118800Y-152354000D03*
X95753800Y-152354000D03*
X96388800Y-152354000D03*
X97023800Y-152354000D03*
X97658800Y-152354000D03*
X98293800Y-152354000D03*
X98928800Y-152354000D03*
X99563800Y-152354000D03*
X100198800Y-152354000D03*
X100198800Y-147045400D03*
X99563800Y-147045400D03*
X98928800Y-147045400D03*
X98293800Y-147045400D03*
X97658800Y-147045400D03*
X97023800Y-147045400D03*
X96388800Y-147045400D03*
X95753800Y-147045400D03*
X95118800Y-147045400D03*
X94483800Y-147045400D03*
X93848800Y-147045400D03*
X93213800Y-147045400D03*
D19*
X114835800Y-127589000D03*
X114835800Y-128859000D03*
X114835800Y-130129000D03*
X114835800Y-131399000D03*
X119785800Y-131399000D03*
X119785800Y-130129000D03*
X119785800Y-128859000D03*
X119785800Y-127589000D03*
X114825600Y-151312600D03*
X114825600Y-152582600D03*
X114825600Y-153852600D03*
X114825600Y-155122600D03*
X119775600Y-155122600D03*
X119775600Y-153852600D03*
X119775600Y-152582600D03*
X119775600Y-151312600D03*
D18*
X93225849Y-129379049D03*
X93860849Y-129379049D03*
X94495849Y-129379049D03*
X95130849Y-129379049D03*
X95765849Y-129379049D03*
X96400849Y-129379049D03*
X97035849Y-129379049D03*
X97670849Y-129379049D03*
X98305849Y-129379049D03*
X98940849Y-129379049D03*
X99575849Y-129379049D03*
X100210849Y-129379049D03*
X100210849Y-124070449D03*
X99575849Y-124070449D03*
X98940849Y-124070449D03*
X98305849Y-124070449D03*
X97670849Y-124070449D03*
X97035849Y-124070449D03*
X96400849Y-124070449D03*
X95765849Y-124070449D03*
X95130849Y-124070449D03*
X94495849Y-124070449D03*
X93860849Y-124070449D03*
X93225849Y-124070449D03*
D14*
X111171600Y-164622200D03*
X111171600Y-167547200D03*
D16*
X92362200Y-176738000D03*
X92362200Y-173813000D03*
X82492200Y-176738000D03*
X82492200Y-173813000D03*
D15*
X112314600Y-112933200D03*
X109389600Y-112933200D03*
D20*
X114415800Y-164705000D03*
D21*
X115565800Y-168705000D03*
D20*
X116715800Y-164705000D03*
D16*
X75912200Y-176738000D03*
X75912200Y-173813000D03*
D22*
X113785300Y-176052200D03*
X113785300Y-175102200D03*
X113785300Y-174152200D03*
X111510300Y-174152200D03*
X111510300Y-176052200D03*
D16*
X79202200Y-176738000D03*
X79202200Y-173813000D03*
D17*
X90339600Y-160939200D03*
X93264600Y-160939200D03*
D15*
X102869800Y-160939200D03*
X99944800Y-160939200D03*
D20*
X103087400Y-138397200D03*
D21*
X104237400Y-142397200D03*
D20*
X105387400Y-138397200D03*
D16*
X85782200Y-176738000D03*
X85782200Y-173813000D03*
D23*
X119811400Y-111465200D03*
X119811400Y-111965200D03*
X119811400Y-112465200D03*
X119811400Y-112965200D03*
X119811400Y-113465200D03*
X119811400Y-113965200D03*
X119811400Y-114465200D03*
X119811400Y-114965200D03*
D24*
X120561400Y-115715200D03*
X121061400Y-115715200D03*
X121561400Y-115715200D03*
X122061400Y-115715200D03*
X122561400Y-115715200D03*
X123061400Y-115715200D03*
X123561400Y-115715200D03*
X124061400Y-115715200D03*
D23*
X124811400Y-114965200D03*
X124811400Y-114465200D03*
X124811400Y-113965200D03*
X124811400Y-113465200D03*
X124811400Y-112965200D03*
X124811400Y-112465200D03*
X124811400Y-111965200D03*
X124811400Y-111465200D03*
D24*
X124061400Y-110715200D03*
X123561400Y-110715200D03*
X123061400Y-110715200D03*
X122561400Y-110715200D03*
X122061400Y-110715200D03*
X121561400Y-110715200D03*
X121061400Y-110715200D03*
X120561400Y-110715200D03*
D25*
X122311400Y-113215200D03*
D22*
X131219720Y-175871860D03*
X131219720Y-174921860D03*
X131219720Y-173971860D03*
X128944720Y-173971860D03*
X128944720Y-175871860D03*
D26*
X95877200Y-105618000D03*
X98827200Y-105618000D03*
D16*
X72622200Y-176738000D03*
X72622200Y-173813000D03*
D26*
X95877200Y-110596400D03*
X98827200Y-110596400D03*
D16*
X95652200Y-176738000D03*
X95652200Y-173813000D03*
X89072200Y-176738000D03*
X89072200Y-173813000D03*
M02*
