(module MAX5190BEEG+ (layer F.Cu)
  (fp_text reference REF** (at 0 0) (layer F.SilkS)
    (effects (font (size 1 1) (thickness 0.15)))
  )
  (fp_text value 21-0055H_24 (at 0 0) (layer F.SilkS)
    (effects (font (size 1 1) (thickness 0.15)))
  )
  (fp_text user "Copyright 2016 Accelerated Designs. All rights reserved." (at 0 0) (layer Cmts.User)
    (effects (font (size 0.127 0.127) (thickness 0.002)))
  )
  (fp_text user "0.025in/0.635mm" (at -5.76935 -3.175) (layer Cmts.User)
    (effects (font (size 1 1) (thickness 0.15)))
  )
  (fp_text user "0.014in/0.355mm" (at 5.76935 -3.4925) (layer Cmts.User)
    (effects (font (size 1 1) (thickness 0.15)))
  )
  (fp_text user "0.214in/5.443mm" (at 0 -6.7818) (layer Cmts.User)
    (effects (font (size 1 1) (thickness 0.15)))
  )
  (fp_text user "0.057in/1.455mm" (at -2.72135 6.7818) (layer Cmts.User)
    (effects (font (size 1 1) (thickness 0.15)))
  )
  (fp_text user "*" (at -2.97535 -4.9903) (layer F.SilkS)
    (effects (font (size 1 1) (thickness 0.15)))
  )
  (fp_text user "*" (at -1.6129 -4.2926) (layer F.Fab)
    (effects (font (size 1 1) (thickness 0.15)))
  )
  (fp_line (start -1.9939 -3.3401) (end -1.9939 -3.6449) (layer F.Fab) (width 0.1524))
  (fp_line (start -1.9939 -3.6449) (end -3.0988 -3.6449) (layer F.Fab) (width 0.1524))
  (fp_line (start -3.0988 -3.6449) (end -3.0988 -3.3401) (layer F.Fab) (width 0.1524))
  (fp_line (start -3.0988 -3.3401) (end -1.9939 -3.3401) (layer F.Fab) (width 0.1524))
  (fp_line (start -1.9939 -2.7051) (end -1.9939 -3.0099) (layer F.Fab) (width 0.1524))
  (fp_line (start -1.9939 -3.0099) (end -3.0988 -3.0099) (layer F.Fab) (width 0.1524))
  (fp_line (start -3.0988 -3.0099) (end -3.0988 -2.7051) (layer F.Fab) (width 0.1524))
  (fp_line (start -3.0988 -2.7051) (end -1.9939 -2.7051) (layer F.Fab) (width 0.1524))
  (fp_line (start -1.9939 -2.0701) (end -1.9939 -2.3749) (layer F.Fab) (width 0.1524))
  (fp_line (start -1.9939 -2.3749) (end -3.0988 -2.3749) (layer F.Fab) (width 0.1524))
  (fp_line (start -3.0988 -2.3749) (end -3.0988 -2.0701) (layer F.Fab) (width 0.1524))
  (fp_line (start -3.0988 -2.0701) (end -1.9939 -2.0701) (layer F.Fab) (width 0.1524))
  (fp_line (start -1.9939 -1.4351) (end -1.9939 -1.7399) (layer F.Fab) (width 0.1524))
  (fp_line (start -1.9939 -1.7399) (end -3.0988 -1.7399) (layer F.Fab) (width 0.1524))
  (fp_line (start -3.0988 -1.7399) (end -3.0988 -1.4351) (layer F.Fab) (width 0.1524))
  (fp_line (start -3.0988 -1.4351) (end -1.9939 -1.4351) (layer F.Fab) (width 0.1524))
  (fp_line (start -1.9939 -0.8001) (end -1.9939 -1.1049) (layer F.Fab) (width 0.1524))
  (fp_line (start -1.9939 -1.1049) (end -3.0988 -1.1049) (layer F.Fab) (width 0.1524))
  (fp_line (start -3.0988 -1.1049) (end -3.0988 -0.8001) (layer F.Fab) (width 0.1524))
  (fp_line (start -3.0988 -0.8001) (end -1.9939 -0.8001) (layer F.Fab) (width 0.1524))
  (fp_line (start -1.9939 -0.1651) (end -1.9939 -0.4699) (layer F.Fab) (width 0.1524))
  (fp_line (start -1.9939 -0.4699) (end -3.0988 -0.4699) (layer F.Fab) (width 0.1524))
  (fp_line (start -3.0988 -0.4699) (end -3.0988 -0.1651) (layer F.Fab) (width 0.1524))
  (fp_line (start -3.0988 -0.1651) (end -1.9939 -0.1651) (layer F.Fab) (width 0.1524))
  (fp_line (start -1.9939 0.4699) (end -1.9939 0.1651) (layer F.Fab) (width 0.1524))
  (fp_line (start -1.9939 0.1651) (end -3.0988 0.1651) (layer F.Fab) (width 0.1524))
  (fp_line (start -3.0988 0.1651) (end -3.0988 0.4699) (layer F.Fab) (width 0.1524))
  (fp_line (start -3.0988 0.4699) (end -1.9939 0.4699) (layer F.Fab) (width 0.1524))
  (fp_line (start -1.9939 1.1049) (end -1.9939 0.8001) (layer F.Fab) (width 0.1524))
  (fp_line (start -1.9939 0.8001) (end -3.0988 0.8001) (layer F.Fab) (width 0.1524))
  (fp_line (start -3.0988 0.8001) (end -3.0988 1.1049) (layer F.Fab) (width 0.1524))
  (fp_line (start -3.0988 1.1049) (end -1.9939 1.1049) (layer F.Fab) (width 0.1524))
  (fp_line (start -1.9939 1.7399) (end -1.9939 1.4351) (layer F.Fab) (width 0.1524))
  (fp_line (start -1.9939 1.4351) (end -3.0988 1.4351) (layer F.Fab) (width 0.1524))
  (fp_line (start -3.0988 1.4351) (end -3.0988 1.7399) (layer F.Fab) (width 0.1524))
  (fp_line (start -3.0988 1.7399) (end -1.9939 1.7399) (layer F.Fab) (width 0.1524))
  (fp_line (start -1.9939 2.3749) (end -1.9939 2.0701) (layer F.Fab) (width 0.1524))
  (fp_line (start -1.9939 2.0701) (end -3.0988 2.0701) (layer F.Fab) (width 0.1524))
  (fp_line (start -3.0988 2.0701) (end -3.0988 2.3749) (layer F.Fab) (width 0.1524))
  (fp_line (start -3.0988 2.3749) (end -1.9939 2.3749) (layer F.Fab) (width 0.1524))
  (fp_line (start -1.9939 3.0099) (end -1.9939 2.7051) (layer F.Fab) (width 0.1524))
  (fp_line (start -1.9939 2.7051) (end -3.0988 2.7051) (layer F.Fab) (width 0.1524))
  (fp_line (start -3.0988 2.7051) (end -3.0988 3.0099) (layer F.Fab) (width 0.1524))
  (fp_line (start -3.0988 3.0099) (end -1.9939 3.0099) (layer F.Fab) (width 0.1524))
  (fp_line (start -1.9939 3.6449) (end -1.9939 3.3401) (layer F.Fab) (width 0.1524))
  (fp_line (start -1.9939 3.3401) (end -3.0988 3.3401) (layer F.Fab) (width 0.1524))
  (fp_line (start -3.0988 3.3401) (end -3.0988 3.6449) (layer F.Fab) (width 0.1524))
  (fp_line (start -3.0988 3.6449) (end -1.9939 3.6449) (layer F.Fab) (width 0.1524))
  (fp_line (start 1.9939 3.3401) (end 1.9939 3.6449) (layer F.Fab) (width 0.1524))
  (fp_line (start 1.9939 3.6449) (end 3.0988 3.6449) (layer F.Fab) (width 0.1524))
  (fp_line (start 3.0988 3.6449) (end 3.0988 3.3401) (layer F.Fab) (width 0.1524))
  (fp_line (start 3.0988 3.3401) (end 1.9939 3.3401) (layer F.Fab) (width 0.1524))
  (fp_line (start 1.9939 2.7051) (end 1.9939 3.0099) (layer F.Fab) (width 0.1524))
  (fp_line (start 1.9939 3.0099) (end 3.0988 3.0099) (layer F.Fab) (width 0.1524))
  (fp_line (start 3.0988 3.0099) (end 3.0988 2.7051) (layer F.Fab) (width 0.1524))
  (fp_line (start 3.0988 2.7051) (end 1.9939 2.7051) (layer F.Fab) (width 0.1524))
  (fp_line (start 1.9939 2.0701) (end 1.9939 2.3749) (layer F.Fab) (width 0.1524))
  (fp_line (start 1.9939 2.3749) (end 3.0988 2.3749) (layer F.Fab) (width 0.1524))
  (fp_line (start 3.0988 2.3749) (end 3.0988 2.0701) (layer F.Fab) (width 0.1524))
  (fp_line (start 3.0988 2.0701) (end 1.9939 2.0701) (layer F.Fab) (width 0.1524))
  (fp_line (start 1.9939 1.4351) (end 1.9939 1.7399) (layer F.Fab) (width 0.1524))
  (fp_line (start 1.9939 1.7399) (end 3.0988 1.7399) (layer F.Fab) (width 0.1524))
  (fp_line (start 3.0988 1.7399) (end 3.0988 1.4351) (layer F.Fab) (width 0.1524))
  (fp_line (start 3.0988 1.4351) (end 1.9939 1.4351) (layer F.Fab) (width 0.1524))
  (fp_line (start 1.9939 0.8001) (end 1.9939 1.1049) (layer F.Fab) (width 0.1524))
  (fp_line (start 1.9939 1.1049) (end 3.0988 1.1049) (layer F.Fab) (width 0.1524))
  (fp_line (start 3.0988 1.1049) (end 3.0988 0.8001) (layer F.Fab) (width 0.1524))
  (fp_line (start 3.0988 0.8001) (end 1.9939 0.8001) (layer F.Fab) (width 0.1524))
  (fp_line (start 1.9939 0.1651) (end 1.9939 0.4699) (layer F.Fab) (width 0.1524))
  (fp_line (start 1.9939 0.4699) (end 3.0988 0.4699) (layer F.Fab) (width 0.1524))
  (fp_line (start 3.0988 0.4699) (end 3.0988 0.1651) (layer F.Fab) (width 0.1524))
  (fp_line (start 3.0988 0.1651) (end 1.9939 0.1651) (layer F.Fab) (width 0.1524))
  (fp_line (start 1.9939 -0.4699) (end 1.9939 -0.1651) (layer F.Fab) (width 0.1524))
  (fp_line (start 1.9939 -0.1651) (end 3.0988 -0.1651) (layer F.Fab) (width 0.1524))
  (fp_line (start 3.0988 -0.1651) (end 3.0988 -0.4699) (layer F.Fab) (width 0.1524))
  (fp_line (start 3.0988 -0.4699) (end 1.9939 -0.4699) (layer F.Fab) (width 0.1524))
  (fp_line (start 1.9939 -1.1049) (end 1.9939 -0.8001) (layer F.Fab) (width 0.1524))
  (fp_line (start 1.9939 -0.8001) (end 3.0988 -0.8001) (layer F.Fab) (width 0.1524))
  (fp_line (start 3.0988 -0.8001) (end 3.0988 -1.1049) (layer F.Fab) (width 0.1524))
  (fp_line (start 3.0988 -1.1049) (end 1.9939 -1.1049) (layer F.Fab) (width 0.1524))
  (fp_line (start 1.9939 -1.7399) (end 1.9939 -1.4351) (layer F.Fab) (width 0.1524))
  (fp_line (start 1.9939 -1.4351) (end 3.0988 -1.4351) (layer F.Fab) (width 0.1524))
  (fp_line (start 3.0988 -1.4351) (end 3.0988 -1.7399) (layer F.Fab) (width 0.1524))
  (fp_line (start 3.0988 -1.7399) (end 1.9939 -1.7399) (layer F.Fab) (width 0.1524))
  (fp_line (start 1.9939 -2.3749) (end 1.9939 -2.0701) (layer F.Fab) (width 0.1524))
  (fp_line (start 1.9939 -2.0701) (end 3.0988 -2.0701) (layer F.Fab) (width 0.1524))
  (fp_line (start 3.0988 -2.0701) (end 3.0988 -2.3749) (layer F.Fab) (width 0.1524))
  (fp_line (start 3.0988 -2.3749) (end 1.9939 -2.3749) (layer F.Fab) (width 0.1524))
  (fp_line (start 1.9939 -3.0099) (end 1.9939 -2.7051) (layer F.Fab) (width 0.1524))
  (fp_line (start 1.9939 -2.7051) (end 3.0988 -2.7051) (layer F.Fab) (width 0.1524))
  (fp_line (start 3.0988 -2.7051) (end 3.0988 -3.0099) (layer F.Fab) (width 0.1524))
  (fp_line (start 3.0988 -3.0099) (end 1.9939 -3.0099) (layer F.Fab) (width 0.1524))
  (fp_line (start 1.9939 -3.6449) (end 1.9939 -3.3401) (layer F.Fab) (width 0.1524))
  (fp_line (start 1.9939 -3.3401) (end 3.0988 -3.3401) (layer F.Fab) (width 0.1524))
  (fp_line (start 3.0988 -3.3401) (end 3.0988 -3.6449) (layer F.Fab) (width 0.1524))
  (fp_line (start 3.0988 -3.6449) (end 1.9939 -3.6449) (layer F.Fab) (width 0.1524))
  (fp_line (start -3.702799 3.9239) (end -3.702799 -3.9239) (layer F.CrtYd) (width 0.1524))
  (fp_line (start -3.702799 -3.9239) (end -2.2479 -3.9239) (layer F.CrtYd) (width 0.1524))
  (fp_line (start -2.2479 -3.9239) (end -2.2479 -4.6228) (layer F.CrtYd) (width 0.1524))
  (fp_line (start -2.2479 -4.6228) (end 2.2479 -4.6228) (layer F.CrtYd) (width 0.1524))
  (fp_line (start 2.2479 -4.6228) (end 2.2479 -3.9239) (layer F.CrtYd) (width 0.1524))
  (fp_line (start 3.702799 -3.9239) (end 2.2479 -3.9239) (layer F.CrtYd) (width 0.1524))
  (fp_line (start 3.702799 -3.9239) (end 3.702799 3.9239) (layer F.CrtYd) (width 0.1524))
  (fp_line (start 3.702799 3.9239) (end 2.2479 3.9239) (layer F.CrtYd) (width 0.1524))
  (fp_line (start 2.2479 3.9239) (end 2.2479 4.6228) (layer F.CrtYd) (width 0.1524))
  (fp_line (start 2.2479 4.6228) (end -2.2479 4.6228) (layer F.CrtYd) (width 0.1524))
  (fp_line (start -2.2479 4.6228) (end -2.2479 3.9239) (layer F.CrtYd) (width 0.1524))
  (fp_line (start -3.702799 3.9239) (end -2.2479 3.9239) (layer F.CrtYd) (width 0.1524))
  (fp_line (start -2.1209 4.4958) (end 2.1209 4.4958) (layer F.SilkS) (width 0.1524))
  (fp_line (start 2.1209 4.4958) (end 2.1209 4.00264) (layer F.SilkS) (width 0.1524))
  (fp_line (start 2.1209 -4.4958) (end -2.1209 -4.4958) (layer F.SilkS) (width 0.1524))
  (fp_line (start -2.1209 -4.4958) (end -2.1209 -4.00264) (layer F.SilkS) (width 0.1524))
  (fp_line (start -1.9939 4.3688) (end 1.9939 4.3688) (layer F.Fab) (width 0.1524))
  (fp_line (start 1.9939 4.3688) (end 1.9939 -4.3688) (layer F.Fab) (width 0.1524))
  (fp_line (start 1.9939 -4.3688) (end -1.9939 -4.3688) (layer F.Fab) (width 0.1524))
  (fp_line (start -1.9939 -4.3688) (end -1.9939 4.3688) (layer F.Fab) (width 0.1524))
  (fp_line (start -2.1209 4.00264) (end -2.1209 4.4958) (layer F.SilkS) (width 0.1524))
  (fp_line (start 2.1209 -4.00264) (end 2.1209 -4.4958) (layer F.SilkS) (width 0.1524))
  (fp_arc (start 0 -4.3688) (end 0.3048 -4.3688) (angle 180)(layer F.Fab) (width 0.1524))
  (pad 1 smd rect (at -2.721348 -3.4925) (size 1.454899 0.3548) (layers F.Cu F.Paste F.Mask))
  (pad 2 smd rect (at -2.721348 -2.8575) (size 1.454899 0.3548) (layers F.Cu F.Paste F.Mask))
  (pad 3 smd rect (at -2.721348 -2.2225) (size 1.454899 0.3548) (layers F.Cu F.Paste F.Mask))
  (pad 4 smd rect (at -2.721348 -1.5875) (size 1.454899 0.3548) (layers F.Cu F.Paste F.Mask))
  (pad 5 smd rect (at -2.721348 -0.9525) (size 1.454899 0.3548) (layers F.Cu F.Paste F.Mask))
  (pad 6 smd rect (at -2.721348 -0.3175) (size 1.454899 0.3548) (layers F.Cu F.Paste F.Mask))
  (pad 7 smd rect (at -2.721348 0.3175) (size 1.454899 0.3548) (layers F.Cu F.Paste F.Mask))
  (pad 8 smd rect (at -2.721348 0.9525) (size 1.454899 0.3548) (layers F.Cu F.Paste F.Mask))
  (pad 9 smd rect (at -2.721348 1.5875) (size 1.454899 0.3548) (layers F.Cu F.Paste F.Mask))
  (pad 10 smd rect (at -2.721348 2.2225) (size 1.454899 0.3548) (layers F.Cu F.Paste F.Mask))
  (pad 11 smd rect (at -2.721348 2.8575) (size 1.454899 0.3548) (layers F.Cu F.Paste F.Mask))
  (pad 12 smd rect (at -2.721348 3.4925) (size 1.454899 0.3548) (layers F.Cu F.Paste F.Mask))
  (pad 13 smd rect (at 2.721348 3.4925) (size 1.454899 0.3548) (layers F.Cu F.Paste F.Mask))
  (pad 14 smd rect (at 2.721348 2.8575) (size 1.454899 0.3548) (layers F.Cu F.Paste F.Mask))
  (pad 15 smd rect (at 2.721348 2.2225) (size 1.454899 0.3548) (layers F.Cu F.Paste F.Mask))
  (pad 16 smd rect (at 2.721348 1.5875) (size 1.454899 0.3548) (layers F.Cu F.Paste F.Mask))
  (pad 17 smd rect (at 2.721348 0.9525) (size 1.454899 0.3548) (layers F.Cu F.Paste F.Mask))
  (pad 18 smd rect (at 2.721348 0.3175) (size 1.454899 0.3548) (layers F.Cu F.Paste F.Mask))
  (pad 19 smd rect (at 2.721348 -0.3175) (size 1.454899 0.3548) (layers F.Cu F.Paste F.Mask))
  (pad 20 smd rect (at 2.721348 -0.9525) (size 1.454899 0.3548) (layers F.Cu F.Paste F.Mask))
  (pad 21 smd rect (at 2.721348 -1.5875) (size 1.454899 0.3548) (layers F.Cu F.Paste F.Mask))
  (pad 22 smd rect (at 2.721348 -2.2225) (size 1.454899 0.3548) (layers F.Cu F.Paste F.Mask))
  (pad 23 smd rect (at 2.721348 -2.8575) (size 1.454899 0.3548) (layers F.Cu F.Paste F.Mask))
  (pad 24 smd rect (at 2.721348 -3.4925) (size 1.454899 0.3548) (layers F.Cu F.Paste F.Mask))
)
